<?xml version="1.0" encoding="UTF-8" standalone="no"?>
<!-- Created with Inkscape (http://www.inkscape.org/) -->

<svg
   xmlns:dc="http://purl.org/dc/elements/1.1/"
   xmlns:cc="http://creativecommons.org/ns#"
   xmlns:rdf="http://www.w3.org/1999/02/22-rdf-syntax-ns#"
   xmlns:svg="http://www.w3.org/2000/svg"
   xmlns="http://www.w3.org/2000/svg"
   xmlns:xlink="http://www.w3.org/1999/xlink"
   xmlns:sodipodi="http://sodipodi.sourceforge.net/DTD/sodipodi-0.dtd"
   xmlns:inkscape="http://www.inkscape.org/namespaces/inkscape"
   width="48"
   height="48"
   viewBox="0 0 12.7 12.7"
   version="1.1"
   id="svg8"
   inkscape:version="0.92.1 r15371"
   sodipodi:docname="ThreeSpheres.svg"
   inkscape:export-filename="C:\Users\jamesd\Documents\ThreeSpheres32png.png"
   inkscape:export-xdpi="64"
   inkscape:export-ydpi="64">
  <defs
     id="defs2">
    <linearGradient
       inkscape:collect="always"
       id="linearGradient5121">
      <stop
         style="stop-color:#ffa000;stop-opacity:1"
         offset="0"
         id="stop5117" />
      <stop
         style="stop-color:#ff0000;stop-opacity:0;"
         offset="1"
         id="stop5119" />
    </linearGradient>
    <linearGradient
       inkscape:collect="always"
       id="linearGradient5093">
      <stop
         style="stop-color:#00a0ff;stop-opacity:1"
         offset="0"
         id="stop5089" />
      <stop
         style="stop-color:#0000ff;stop-opacity:0;"
         offset="1"
         id="stop5091" />
    </linearGradient>
    <linearGradient
       inkscape:collect="always"
       id="linearGradient5065">
      <stop
         style="stop-color:#60ff00;stop-opacity:1"
         offset="0"
         id="stop5061" />
      <stop
         style="stop-color:#00a000;stop-opacity:0;"
         offset="1"
         id="stop5063" />
    </linearGradient>
    <radialGradient
       inkscape:collect="always"
       xlink:href="#linearGradient5065"
       id="radialGradient5067"
       cx="6.2526078"
       cy="282.05997"
       fx="6.2526078"
       fy="282.05997"
       r="3.96875"
       gradientUnits="userSpaceOnUse"
       gradientTransform="translate(-2.3569019,5.3078918)" />
    <radialGradient
       inkscape:collect="always"
       xlink:href="#linearGradient5093"
       id="radialGradient5095"
       cx="8.2394171"
       cy="5.5124235"
       fx="8.2394171"
       fy="5.5124235"
       r="3.5718753"
       gradientUnits="userSpaceOnUse"
       gradientTransform="translate(-0.9861,1.4487152)" />
    <radialGradient
       inkscape:collect="always"
       xlink:href="#linearGradient5121"
       id="radialGradient5123"
       cx="4.9865031"
       cy="9.8853531"
       fx="4.9865031"
       fy="9.8853531"
       r="2.3812499"
       gradientUnits="userSpaceOnUse"
       gradientTransform="translate(-1.6215873,-1.1492332)" />
  </defs>
  <sodipodi:namedview
     id="base"
     pagecolor="#ffffff"
     bordercolor="#666666"
     borderopacity="1.0"
     inkscape:pageopacity="0.0"
     inkscape:pageshadow="2"
     inkscape:zoom="27.166667"
     inkscape:cx="23.907975"
     inkscape:cy="23.547081"
     inkscape:document-units="px"
     inkscape:current-layer="layer3"
     showgrid="false"
     units="px"
     inkscape:pagecheckerboard="false"
     inkscape:window-width="1793"
     inkscape:window-height="1974"
     inkscape:window-x="3950"
     inkscape:window-y="62"
     inkscape:window-maximized="0" />
  <metadata
     id="metadata5">
    <rdf:RDF>
      <cc:Work
         rdf:about="">
        <dc:format>image/svg+xml</dc:format>
        <dc:type
           rdf:resource="http://purl.org/dc/dcmitype/StillImage" />
        <dc:title></dc:title>
      </cc:Work>
    </rdf:RDF>
  </metadata>
  <g
     inkscape:label="Green"
     inkscape:groupmode="layer"
     id="layer1"
     transform="translate(0,-284.3)">
    <circle
       style="fill:#00a000;fill-opacity:1;stroke:none;stroke-width:0.82079107;stroke-linejoin:round;stroke-miterlimit:4;stroke-dasharray:none;stroke-opacity:1"
       id="path5036"
       cx="4.7624998"
       cy="289.0625"
       r="3.96875" />
    <circle
       style="fill:url(#radialGradient5067);fill-opacity:1;stroke:none;stroke-width:0.82079107;stroke-linejoin:round;stroke-miterlimit:4;stroke-dasharray:none;stroke-opacity:1"
       id="path5036-4"
       cx="4.7624998"
       cy="289.0625"
       r="3.96875" />
  </g>
  <g
     inkscape:groupmode="layer"
     id="layer3"
     inkscape:label="Red">
    <circle
       style="fill:#ff0000;fill-opacity:1;stroke:none;stroke-width:0.85120064;stroke-linejoin:round;stroke-miterlimit:4;stroke-dasharray:none;stroke-opacity:1"
       id="path5100"
       cx="3.96875"
       cy="9.5249996"
       r="2.3812499" />
    <circle
       style="fill:url(#radialGradient5123);fill-opacity:1;stroke:none;stroke-width:0.85120064;stroke-linejoin:round;stroke-miterlimit:4;stroke-dasharray:none;stroke-opacity:1"
       id="path5100-7"
       cx="3.96875"
       cy="9.5249996"
       r="2.3812499" />
  </g>
  <g
     inkscape:groupmode="layer"
     id="layer2"
     inkscape:label="Blue">
    <circle
       style="fill:#0000ff;fill-opacity:1;stroke:none;stroke-width:1.05874896;stroke-linejoin:round;stroke-miterlimit:4;stroke-dasharray:none;stroke-opacity:1"
       id="path5072"
       cx="8.3343754"
       cy="8.3343744"
       r="3.5718751" />
    <ellipse
       style="fill:url(#radialGradient5095);fill-opacity:1;stroke:none;stroke-width:1.05874896;stroke-linejoin:round;stroke-miterlimit:4;stroke-dasharray:none;stroke-opacity:1"
       id="path5072-5"
       cx="8.3343754"
       cy="8.3343744"
       rx="3.5718751"
       ry="3.5718753" />
  </g>
</svg>
