<?xml version="1.0" encoding="UTF-8" standalone="no"?>
<!-- Created with Inkscape (http://www.inkscape.org/) -->

<svg
   xmlns:dc="http://purl.org/dc/elements/1.1/"
   xmlns:cc="http://creativecommons.org/ns#"
   xmlns:rdf="http://www.w3.org/1999/02/22-rdf-syntax-ns#"
   xmlns:svg="http://www.w3.org/2000/svg"
   xmlns="http://www.w3.org/2000/svg"
   xmlns:xlink="http://www.w3.org/1999/xlink"
   xmlns:sodipodi="http://sodipodi.sourceforge.net/DTD/sodipodi-0.dtd"
   xmlns:inkscape="http://www.inkscape.org/namespaces/inkscape"
   width="48"
   height="48"
   id="svg2"
   version="1.1"
   inkscape:version="0.48.4 r9939"
   sodipodi:docname="WarningOverlay.svg"
   inkscape:export-filename="C:\Users\jamesd\Documents\NetBeansProjects\Ether\src\etherj\ui\resources\WarningOverlay16.png"
   inkscape:export-xdpi="30"
   inkscape:export-ydpi="30">
  <defs
     id="defs4">
    <linearGradient
       id="linearGradient3755">
      <stop
         style="stop-color:#d09c00;stop-opacity:1;"
         offset="0"
         id="stop3757" />
      <stop
         style="stop-color:#e00000;stop-opacity:1;"
         offset="1"
         id="stop3759" />
    </linearGradient>
    <radialGradient
       inkscape:collect="always"
       xlink:href="#linearGradient3755"
       id="radialGradient3761"
       cx="38.211765"
       cy="32.878429"
       fx="38.211765"
       fy="32.878429"
       r="11.476471"
       gradientUnits="userSpaceOnUse" />
  </defs>
  <sodipodi:namedview
     id="base"
     pagecolor="#ffffff"
     bordercolor="#666666"
     borderopacity="1.0"
     inkscape:pageopacity="0.0"
     inkscape:pageshadow="2"
     inkscape:zoom="15.9375"
     inkscape:cx="25.714652"
     inkscape:cy="19.217333"
     inkscape:document-units="px"
     inkscape:current-layer="layer1"
     showgrid="true"
     inkscape:window-width="1342"
     inkscape:window-height="982"
     inkscape:window-x="50"
     inkscape:window-y="50"
     inkscape:window-maximized="0">
    <inkscape:grid
       type="xygrid"
       id="grid3775"
       empspacing="5"
       visible="true"
       enabled="true"
       snapvisiblegridlinesonly="true" />
  </sodipodi:namedview>
  <metadata
     id="metadata7">
    <rdf:RDF>
      <cc:Work
         rdf:about="">
        <dc:format>image/svg+xml</dc:format>
        <dc:type
           rdf:resource="http://purl.org/dc/dcmitype/StillImage" />
        <dc:title></dc:title>
      </cc:Work>
    </rdf:RDF>
  </metadata>
  <g
     inkscape:label="Layer 1"
     inkscape:groupmode="layer"
     id="layer1"
     transform="translate(0,-1004.3622)">
    <path
       sodipodi:type="star"
       style="fill:#fff401;fill-opacity:1;stroke:#e0a800;stroke-width:3.10209823;stroke-linecap:round;stroke-linejoin:round;stroke-miterlimit:4;stroke-opacity:1;stroke-dasharray:none"
       id="path3785"
       sodipodi:sides="3"
       sodipodi:cx="22"
       sodipodi:cy="20"
       sodipodi:r1="8.0622578"
       sodipodi:r2="16.124516"
       sodipodi:arg1="1.4288993"
       sodipodi:arg2="2.6224465"
       inkscape:flatsided="false"
       inkscape:rounded="0"
       inkscape:randomized="0"
       d="m 23.140175,27.981228 -15.1401747,0.01877 6.5179657,-11.003194 7.55383,-13.1211627 6.270063,11.1463207 7.586345,13.10239 z"
       transform="matrix(0.96679679,0,0,0.96679945,11.715673,1020.7215)" />
    <path
       sodipodi:type="arc"
       style="fill:#000000;fill-opacity:1;stroke:none"
       id="path3767"
       sodipodi:cx="32.815685"
       sodipodi:cy="39.278431"
       sodipodi:rx="2.4470589"
       sodipodi:ry="2.4470589"
       d="m 35.262744,39.278431 a 2.4470589,2.4470589 0 1 1 -4.894118,0 2.4470589,2.4470589 0 1 1 4.894118,0 z"
       transform="matrix(1.2259615,0,0,0.9194711,-7.2307657,1007.9968)" />
    <rect
       style="fill:#000000;fill-opacity:1;stroke:none"
       id="rect3769"
       width="6"
       height="12"
       x="30"
       y="1028.3622"
       ry="3" />
  </g>
</svg>
